02:33.5 - 02:37.8       - greetings
# 05:13.2 - 05:19       - О, вы всё ещё вносите за майнкрафт, а мы его уже удалили
05:37.5 - 05:42         - NaNi Party never stops!
07:56.2 - 08:00.9       - Сегодня мы играем в Крэша
08:03.5 - 08:13         - ...это игра моего детства...
08:24.8 - 08:40.2       - я нашёл русификатор
08:41 - 09:06           - я буду вам переводить

14:29 - 14:35           - запустили игру
14:35 - 14:50           - close-up

15:10 - 15:14           - разрешили играть
15:48.5 - 16:17         - трудности с переводом
18:47 - 19:01           - пока легко
19:58.2 - 20:02         - я тренировался
#20:02 - 20:23           - bossmusic
20:02 - 20:16           - bossmusic
20:27.5 - 20:40.2       - ...не то, что боссы в дарксоулсе
20:46 - 20:54.4         - первый уровень пройден

21:09 - 21:15           - остров Вумпы
23:02 - 23:10           - немного геймплея
23:15 - 23:33           - главное не поломаться
24:23.5 - 24:30         - буду стримить пока не пройду
24:41 - 24:52.8         - а до туда можно допрыгнуть?
25:00 - 25:17.4         - походу, потом откроется
25:21 - 25:36           - мы растём
25:38.8 - 25:51         - а как это делать?
26:01 - 26:04.8         - пока у нас всё хорошо
26:44 - 26:53.5         - раньше было сложнее

26:55.4 - 26:58         - а где три ящика ещё?
26:58 - 27:01.8         - close-up
27:07.9 - 27:16         - три ящика нету
27:21.6 - 27:25         - будем перепроходить
27:35.4 - 27:38.4       - идём дальше
27:49 - 27:54           - начинается жёсткий уровень
28:12 - 28:31           - начался платформер
28:58.75 - 29:29        - это место заставляло беситься
29:37.8 - 29:43         - пропустил ящик
29:54 - 30:11.4         - только тапки полетели
30:15.5 - 30:19.6       - что за дичь начинается
30:39 - 30:56           - а как его проходить?

31:01.6 - 31:19         - смоГ
31:19 - 31:25.6         - close-up
32:10.5 - 32:26         - огонь
32:46 - 33:10.6         - что это за приколы?

34:02 - 34:25           - а где ещё 8 штук?
34:25 - 34:32           - close-up
34:48.8 - 35:02         - погнали дальше
35:28 - 35:31.7         - убегаем
35:31.7 - 35:35         - close-up
35:43.5 - 36:04         - второй забег
36:43 - 36:53           - кубики ломаем...

38:22 - 38:35           - новые прыжки
39:35 - 39:41           - бонусные уровни!

39:51 - 40:01           - close-up
40:01 - 40:14           - проходим бонусный уровень
41:46 - 41:53           - первый босс
42:02 - 42:08           - наелся и спит
42:48 - 42:54.5         - заспидранили босса
43:42 - 43:49           - бульбульча
43:55 - 44:23.5         - верни тапки!
45:43.3 - 45:53         - а где?
52:10 - 52:22           - hog wild
52:26 - 52:30           - кабан!
52:36.5 - 52:41         - рейсинг на кабанах
52:45 - 52:48.5         - как же им сложно управлять
52:58 - 53:05           - умер 1
53:14 - 53:19.5         - умер 2
53:22 - 53:24.5         - увернулся

53:30 - 53:32.4         - умер 3
53:32.4 - 53:36.5       - close-up
53:39.4 - 53:43.6       - можно перепрыгнуть
53:47 - 53:52.5         - умер 4
53:57 - 54:00.5         - отстань!
54:06 - 54:11           - умер 5
54:15 - 54:20           - умер 6
54:33 - 54:39           - умер 7
54:50 - 54:56           - умер 8
55:09 - 55:13           - о, да! Наконец-то!
55:17 - 55:21           - умер 9
55:43 - 55:49           - прошёл!
56:29 - 56:31.4         - идём дальше
56:39.8 - 56:43.7       - close-up
58:10 - 58:21           - постоянно приходится падать
58:23.8 - 58:32         - это яблоко переживёт
58:39.5 - 58:46         - вы издеваетесь?
59:02 - 59:10           - прикольно оно выплёвывает
59:21 - 59:35.5         - несколько смертей подряд
59:41 - 59:55           - надо сконцентрироваться

1:00:05 - 1:00:09       - nani?
1:00:09 - 1:00:11       - close-up
1:00:14.7 - 1:00:19     - умер снова
1:00:19 - 1:00:24       - close-up
1:00:47.5 - 1:00:57.9   - а-а-а!
1:01:10 - 1:01:33       - не такой уж и сложный момент
1:01:37 - 1:01:46       - а-а-а-а!
1:02:56.5 - 1:03:13     - не допрыгнул
1:05:00 - 1:05:10       - я подожду пока они отклеятся

1:05:13 - 1:05:16.5     - вы угараете?
1:05:16.5 - 1:05:21     - close-up
1:05:29.5 - 1:05:37     - опасный момент
1:06:09 - 1:06:16       - это был не я
1:07:17 - 1:07:32       - упал
1:07:43 - 1:07:51       - ещё упал
1:08:09 - 1:08:18       - это было легче чем легко!
1:08:44 - 1:08:49       - не вздумай тут ходить
1:09:00 - 1:09:07       - умер
1:09:15.8 - 1:09:24.5   - close-up

1:10:42 - 1:10:55       - опасно трижды
1:10:55 - 1:10:58       - close-up
1:11:06 - 1:11:20       - походу начну игру сначала
1:11:26 - 1:11:34.5     - тайминги

1:11:51 - 1:11:55       - одна попытка
1:11:55 - 1:12:01       - bossmusic_intense
1:12:01 - 1:12:11       - одна попытка
1:12:17 - 1:12:29       - совсем умер
1:12:29 - 1:12:38       - close-up
1:12:38 - 1:12:57       - весь уровень сначала
1:13:10.4 - 1:13:14     - вы весь экран залепили
1:14:13 - 1:14:20       - ща будем всё быстро проходить
1:17:05 - 1:17:17       - думать хорошо
1:17:23 - 1:17:28.5     - умер
1:17:28.5 - 1:17:34     - close-up
1:19:04 - 1:19:20       - о, получилось!
1:20:26.5 - 1:20:28.5   - не гори
1:20:39 - 1:20:46       - ты чё, издеваешься надо мной?
1:20:58 - 1:21:28       - как оно сломалось?
1:21:52 - 1:22:04       - опасно!
1:22:22.6 - 1:22:27.6   - чекпойнт
1:23:03 - 1:23:12       - как я должен прыгать по ним?
1:24:20 - 1:24:32.6     - умер
1:24:32.6 - 1:24:42     - close-up
1:29:04 - 1:29:15       - я стал серьёзнее
1:29:56 - 1:29:59       - взял чекпойнт
1:29:59 - 1:30:01       - close-up
1:30:01 - 1:30:14       - а вот это я зря сделал
1:31:19 - 1:31:41       - прошёл!
1:32:01 - 1:32:18       - сейчас нельзя падать
1:32:35.8 - 1:32:43     - я прошёл этот уровень!
1:34:55.5 - 1:34:59     - там рыбов показывают
1:35:03 - 1:35:06.9     - рыбьи звуки
1:35:24 - 1:35:38       - да что это такое?
1:36:00 - 1:36:10       - ещё рыбьи звуки
1:36:34 - 1:36:40       - а что это за восклицательные знаки?
1:36:59 - 1:37:15       - что с тобой не так?
1:37:16.5 - 1:37:23     - просто попади на него
1:37:29.6 - 1:37:33     - неожиданно
1:37:42 - 1:37:55       - что это за прикол?
1:38:12.4 - 1:38:20     - опять не попал
1:40:32 - 1:40:44       - не закрывайся!
1:42:08 - 1:42:13.8     - погнали!
1:42:13.8 - 1:42:16.2   - close-up
1:42:16.2 - 1:42:40     - уровень!
1:42:56 - 1:43:06       - собрал все кубики!
1:43:39.7 - 1:43:42     - о, следующий босс!
1:44:04 - 1:44:08       - прыгает туда же, куда прыгаю я
1:44:23 - 1:44:29       - бух
1:44:40 - 1:44:50       - куда ты поплыл?
1:45:18 - 1:45:22.5     - не трогай меня
1:45:47 - 1:45:54       - да не прыгай туда, куда я прыгаю!
1:45:59 - 1:46:06       - он перепрыгнул этот кубик!
1:46:15 - 1:46:24       - да как ты опять её перепрыгнул?

1:46:52 - 1:46:57.5     - умер
1:46:57.5 - 1:47:03.5   - close-up
1:47:27 - 1:47:38.5     - наконец-то попал
1:47:38.5 - 1:47:44     - close-up
1:48:13 - 1:48:41       - заспидранил!
1:49:05.5 - 1:49:11     - идём дальше...
1:49:35 - 1:49:48       - как я выберусь отсюда?
1:50:44.5 - 1:50:52.5   - я должен что-то активировать?
1:50:56.5 - 1:50:59.4   - я должен что-то активировать?
1:50:59.4 - 1:51:04.4   - close-up
1:51:42 - 1:51:47       - ну вон же, руками достаёшь!
1:52:13 - 1:52:19       - зачем ты так делаешь?
1:52:47 - 1:52:55       - ну почему?
1:53:00 - 1:53:19       - стрельба по мышам
1:56:55 - 1:57:15.5     - отбежал
1:57:15.5 - 1:57:17.6   - close-up
1:57:22 - 1:57:29       - упс
1:59:19 - 1:59:31       - мосты кончились
1:59:31 - 1:59:35       - close-up
2:01:33 - 2:01:43.6     - как я выжил?
2:02:16 - 2:02:21       - куда же ты прыгаешь?
2:02:35 - 2:02:39       - каеф
2:02:48 - 2:02:55       - дополнительный уровень
2:03:07 - 2:03:15.5     - умер
2:03:15.5 - 2:03:19     - close-up
2:03:30.5 - 2:03:34.5   - заново
2:03:52.5 - 2:04:02     - не туда
2:04:27 - 2:04:36       - кайф
2:05:15 - 2:05:36       - я же почти прошёл
2:07:19 - 2:07:25.5     - не допрыгнул
2:07:25.5 - 2:07:27     - close-up
2:07:27 - 2:07:35.5     - просто лучший!
2:07:35.5 - 2:07:40     - close-up
2:10:38 - 2:10:55.5     - проходит
2:10:55.5 - 2:10:57.5   - close-up
2:11:11.5 - 2:11:19     - close-up
2:11:19 - 2:11:34       - не говорите, что всё заново
2:12:11 - 2:12:27       - яблоки
# 2:13:13 - 2:13:17.4     - close-up
2:13:56 - 2:13:59       - классная локация
2:15:48 - 2:16:08       - не туда
2:16:43 - 2:16:59       - больше яблок!
2:18:02 - 2:18:24       - есть люди, которые много стримят
2:18:59 - 2:19:08.4     - главное не повторять ошибки
2:19:31 - 2:19:38       - а-а-а, чорт!
2:20:00 - 2:20:15       - почему таймеры такие таймерские
2:20:55 - 2:21:08       - даже обратно не смог вернуться
2:21:18 - 2:21:29       - game over
2:21:34.8 - 2:21:41     - close-up
2:22:27 - 2:22:34.5     - close-up
2:22:52.8 - 2:22:58       - close-up
